{
	"partitions" : [
		{
			"name" : "Top",
			"pins" : [
				{
					"name" : "slrd",
					"strict" : false
				},
				{
					"name" : "slwr",
					"strict" : false
				},
				{
					"name" : "sloe",
					"strict" : false
				},
				{
					"name" : "addr[0]",
					"strict" : false
				},
				{
					"name" : "addr[1]",
					"strict" : false
				},
				{
					"name" : "data_inout[0]",
					"strict" : false
				},
				{
					"name" : "data_inout[1]",
					"strict" : false
				},
				{
					"name" : "data_inout[2]",
					"strict" : false
				},
				{
					"name" : "data_inout[3]",
					"strict" : false
				},
				{
					"name" : "data_inout[4]",
					"strict" : false
				},
				{
					"name" : "data_inout[5]",
					"strict" : false
				},
				{
					"name" : "data_inout[6]",
					"strict" : false
				},
				{
					"name" : "data_inout[7]",
					"strict" : false
				},
				{
					"name" : "data_inout[8]",
					"strict" : false
				},
				{
					"name" : "data_inout[9]",
					"strict" : false
				},
				{
					"name" : "data_inout[10]",
					"strict" : false
				},
				{
					"name" : "data_inout[11]",
					"strict" : false
				},
				{
					"name" : "data_inout[12]",
					"strict" : false
				},
				{
					"name" : "data_inout[13]",
					"strict" : false
				},
				{
					"name" : "data_inout[14]",
					"strict" : false
				},
				{
					"name" : "data_inout[15]",
					"strict" : false
				},
				{
					"name" : "data_inout[16]",
					"strict" : false
				},
				{
					"name" : "data_inout[17]",
					"strict" : false
				},
				{
					"name" : "data_inout[18]",
					"strict" : false
				},
				{
					"name" : "data_inout[19]",
					"strict" : false
				},
				{
					"name" : "data_inout[20]",
					"strict" : false
				},
				{
					"name" : "data_inout[21]",
					"strict" : false
				},
				{
					"name" : "data_inout[22]",
					"strict" : false
				},
				{
					"name" : "data_inout[23]",
					"strict" : false
				},
				{
					"name" : "data_inout[24]",
					"strict" : false
				},
				{
					"name" : "data_inout[25]",
					"strict" : false
				},
				{
					"name" : "data_inout[26]",
					"strict" : false
				},
				{
					"name" : "data_inout[27]",
					"strict" : false
				},
				{
					"name" : "data_inout[28]",
					"strict" : false
				},
				{
					"name" : "data_inout[29]",
					"strict" : false
				},
				{
					"name" : "data_inout[30]",
					"strict" : false
				},
				{
					"name" : "data_inout[31]",
					"strict" : false
				},
				{
					"name" : "flagd",
					"strict" : false
				},
				{
					"name" : "flagb",
					"strict" : false
				},
				{
					"name" : "flagc",
					"strict" : false
				},
				{
					"name" : "flaga",
					"strict" : false
				}
			]
		}
	]
}