{
	"partitions" : [
		{
			"name" : "Top",
			"pins" : [
				{
					"name" : "slrd",
					"strict" : false
				},
				{
					"name" : "sloe",
					"strict" : false
				},
				{
					"name" : "LEDG[0]",
					"strict" : false
				},
				{
					"name" : "LEDG[1]",
					"strict" : false
				},
				{
					"name" : "LEDG[2]",
					"strict" : false
				},
				{
					"name" : "LEDG[3]",
					"strict" : false
				},
				{
					"name" : "LEDG[4]",
					"strict" : false
				},
				{
					"name" : "LEDG[5]",
					"strict" : false
				},
				{
					"name" : "LEDG[6]",
					"strict" : false
				},
				{
					"name" : "LEDG[7]",
					"strict" : false
				},
				{
					"name" : "LEDR[0]",
					"strict" : false
				},
				{
					"name" : "LEDR[1]",
					"strict" : false
				},
				{
					"name" : "LEDR[2]",
					"strict" : false
				},
				{
					"name" : "LEDR[3]",
					"strict" : false
				},
				{
					"name" : "LEDR[4]",
					"strict" : false
				},
				{
					"name" : "LEDR[5]",
					"strict" : false
				},
				{
					"name" : "LEDR[6]",
					"strict" : false
				},
				{
					"name" : "LEDR[7]",
					"strict" : false
				},
				{
					"name" : "LEDR[8]",
					"strict" : false
				},
				{
					"name" : "LEDR[9]",
					"strict" : false
				},
				{
					"name" : "fdata[0]",
					"strict" : false
				},
				{
					"name" : "fdata[1]",
					"strict" : false
				},
				{
					"name" : "fdata[2]",
					"strict" : false
				},
				{
					"name" : "fdata[3]",
					"strict" : false
				},
				{
					"name" : "fdata[4]",
					"strict" : false
				},
				{
					"name" : "fdata[5]",
					"strict" : false
				},
				{
					"name" : "fdata[6]",
					"strict" : false
				},
				{
					"name" : "fdata[7]",
					"strict" : false
				},
				{
					"name" : "fdata[8]",
					"strict" : false
				},
				{
					"name" : "fdata[9]",
					"strict" : false
				},
				{
					"name" : "fdata[10]",
					"strict" : false
				},
				{
					"name" : "fdata[11]",
					"strict" : false
				},
				{
					"name" : "fdata[12]",
					"strict" : false
				},
				{
					"name" : "fdata[13]",
					"strict" : false
				},
				{
					"name" : "fdata[14]",
					"strict" : false
				},
				{
					"name" : "fdata[15]",
					"strict" : false
				},
				{
					"name" : "fdata[16]",
					"strict" : false
				},
				{
					"name" : "fdata[17]",
					"strict" : false
				},
				{
					"name" : "flagd",
					"strict" : false
				},
				{
					"name" : "flagc",
					"strict" : false
				}
			]
		}
	]
}