   1              		.cpu arm926ej-s
   2              		.fpu softvfp
   3              		.eabi_attribute 20, 1
   4              		.eabi_attribute 21, 1
   5              		.eabi_attribute 23, 3
   6              		.eabi_attribute 24, 1
   7              		.eabi_attribute 25, 1
   8              		.eabi_attribute 26, 1
   9              		.eabi_attribute 30, 6
  10              		.eabi_attribute 34, 0
  11              		.eabi_attribute 18, 4
  12              		.file	"RunApplication.c"
  13              		.text
  14              	.Ltext0:
  15              		.cfi_sections	.debug_frame
  16              		.comm	ApplicationThread,168,4
  17              		.comm	glApplicationEvent,40,4
  18              		.comm	ThreadHandle,336,4
  19              		.comm	glIsApplicationActive,4,4
  20              		.comm	CallbackEvent,40,4
  21              		.comm	Delay,2,2
  22              		.section	.rodata
  23              		.align	2
  24              	.LC0:
  25 0000 0D0A4275 		.ascii	"\015\012Button Press Detected \015\012\000"
  25      74746F6E 
  25      20507265 
  25      73732044 
  25      65746563 
  26              		.section	.text.Gpio_IntrCB,"ax",%progbits
  27              		.align	2
  28              		.global	Gpio_IntrCB
  30              	Gpio_IntrCB:
  31              	.LFB0:
  32              		.file 1 "../RunApplication.c"
   1:../RunApplication.c **** /**
   2:../RunApplication.c ****  * @file	RunApplication.c
   3:../RunApplication.c ****  * @brief	Running the OS application threads
   4:../RunApplication.c ****  *
   5:../RunApplication.c ****  * @author	Vinurudh Damarla
   6:../RunApplication.c ****  *
   7:../RunApplication.c ****  */
   8:../RunApplication.c **** #include "Application.h"
   9:../RunApplication.c **** 
  10:../RunApplication.c **** /**
  11:../RunApplication.c ****  * @brief <b> Setting up the USB Descriptors </b><br>
  12:../RunApplication.c ****  *
  13:../RunApplication.c ****  * @return status CyU3PReturnStatus_t, the status of the configuration
  14:../RunApplication.c ****  */
  15:../RunApplication.c **** extern CyU3PReturnStatus_t InitializeDebugConsole(void);
  16:../RunApplication.c **** 
  17:../RunApplication.c **** /**
  18:../RunApplication.c ****  * @brief <b> Setting up the USB Descriptors </b><br>
  19:../RunApplication.c ****  *
  20:../RunApplication.c ****  * @return status CyU3PReturnStatus_t, the status of the configuration
  21:../RunApplication.c ****  */
  22:../RunApplication.c **** extern CyU3PReturnStatus_t InitializeUSB(void);
  23:../RunApplication.c **** 
  24:../RunApplication.c **** /**
  25:../RunApplication.c ****  * @brief <b> Checks the status </b><br>
  26:../RunApplication.c ****  * Checks the status of the API and prints in the debug console
  27:../RunApplication.c ****  *
  28:../RunApplication.c ****  * @param StringPtr char, name to be printed
  29:../RunApplication.c ****  * @param status CyU3PReturnStatus_t, the status returned
  30:../RunApplication.c ****  */
  31:../RunApplication.c **** extern void CheckStatus(char* StringPtr, CyU3PReturnStatus_t Status);
  32:../RunApplication.c **** 
  33:../RunApplication.c **** /**
  34:../RunApplication.c ****  * @brief <b> Printing the event received </b><br>
  35:../RunApplication.c ****  *
  36:../RunApplication.c ****  * @param ActualEvents uint32_t, event received
  37:../RunApplication.c ****  */
  38:../RunApplication.c **** extern void DebugPrintEvent(uint32_t ActualEvents);
  39:../RunApplication.c **** 
  40:../RunApplication.c **** /**
  41:../RunApplication.c ****  * @brief <b> Printing the event received </b><br>
  42:../RunApplication.c ****  *
  43:../RunApplication.c ****  * @param ActualEvents uint32_t, event received
  44:../RunApplication.c ****  */
  45:../RunApplication.c **** extern void ParseCommand(void);
  46:../RunApplication.c **** void InitializeCPLD(void);
  47:../RunApplication.c **** 
  48:../RunApplication.c **** CyU3PThread ApplicationThread;			// Handle to my Application Thread
  49:../RunApplication.c **** CyU3PEvent glApplicationEvent;			// An Event to allow threads to communicate
  50:../RunApplication.c **** 
  51:../RunApplication.c **** CyU3PThread ThreadHandle[2];
  52:../RunApplication.c **** CyBool_t glIsApplicationActive;		// Set true once device is enumerated
  53:../RunApplication.c **** CyU3PEvent CallbackEvent;
  54:../RunApplication.c **** uint16_t Delay;
  55:../RunApplication.c **** 
  56:../RunApplication.c **** // Call back function for GPIO
  57:../RunApplication.c **** void Gpio_IntrCB(uint8_t gpioId)
  58:../RunApplication.c **** {
  33              		.loc 1 58 0
  34              		.cfi_startproc
  35              		@ args = 0, pretend = 0, frame = 8
  36              		@ frame_needed = 1, uses_anonymous_args = 0
  37 0000 00482DE9 		stmfd	sp!, {fp, lr}
  38              	.LCFI0:
  39              		.cfi_def_cfa_offset 8
  40              		.cfi_offset 11, -8
  41              		.cfi_offset 14, -4
  42 0004 04B08DE2 		add	fp, sp, #4
  43              	.LCFI1:
  44              		.cfi_def_cfa 11, 4
  45 0008 08D04DE2 		sub	sp, sp, #8
  46 000c 0030A0E1 		mov	r3, r0
  47 0010 05304BE5 		strb	r3, [fp, #-5]
  59:../RunApplication.c **** 	if(gpioId == BUTTON)
  48              		.loc 1 59 0
  49 0014 05305BE5 		ldrb	r3, [fp, #-5]	@ zero_extendqisi2
  50 0018 2D0053E3 		cmp	r3, #45
  51 001c 0B00001A 		bne	.L1
  60:../RunApplication.c **** 	{
  61:../RunApplication.c **** 		Delay = (Delay == 1000) ? 100 : 1000;
  52              		.loc 1 61 0
  53 0020 30309FE5 		ldr	r3, .L5
  54 0024 B030D3E1 		ldrh	r3, [r3]
  55 0028 FA0F53E3 		cmp	r3, #1000
  56 002c 0100001A 		bne	.L3
  57              		.loc 1 61 0 is_stmt 0 discriminator 1
  58 0030 6430A0E3 		mov	r3, #100
  59 0034 000000EA 		b	.L4
  60              	.L3:
  61              		.loc 1 61 0 discriminator 2
  62 0038 FA3FA0E3 		mov	r3, #1000
  63              	.L4:
  64              		.loc 1 61 0 discriminator 3
  65 003c 14209FE5 		ldr	r2, .L5
  66 0040 B030C2E1 		strh	r3, [r2]	@ movhi
  62:../RunApplication.c **** 		CyU3PDebugPrint(4, "\r\nButton Press Detected \r\n");
  67              		.loc 1 62 0 is_stmt 1 discriminator 3
  68 0044 0400A0E3 		mov	r0, #4
  69 0048 0C109FE5 		ldr	r1, .L5+4
  70 004c FEFFFFEB 		bl	CyU3PDebugPrint
  71              	.L1:
  63:../RunApplication.c **** 	}
  64:../RunApplication.c **** }
  72              		.loc 1 64 0
  73 0050 04D04BE2 		sub	sp, fp, #4
  74              		@ sp needed
  75 0054 0088BDE8 		ldmfd	sp!, {fp, pc}
  76              	.L6:
  77              		.align	2
  78              	.L5:
  79 0058 00000000 		.word	Delay
  80 005c 00000000 		.word	.LC0
  81              		.cfi_endproc
  82              	.LFE0:
  84              		.section	.rodata
  85 001b 00       		.align	2
  86              	.LC1:
  87 001c 496E6974 		.ascii	"Initialize Debug Console\000"
  87      69616C69 
  87      7A652044 
  87      65627567 
  87      20436F6E 
  88 0035 000000   		.align	2
  89              	.LC2:
  90 0038 43726561 		.ascii	"Create CallbackEvent\000"
  90      74652043 
  90      616C6C62 
  90      61636B45 
  90      76656E74 
  91 004d 000000   		.align	2
  92              	.LC3:
  93 0050 496E6974 		.ascii	"Initialize USB\000"
  93      69616C69 
  93      7A652055 
  93      534200
  94              		.section	.text.InitializeDevices,"ax",%progbits
  95              		.align	2
  96              		.global	InitializeDevices
  98              	InitializeDevices:
  99              	.LFB1:
  65:../RunApplication.c **** 
  66:../RunApplication.c **** void InitializeDevices()
  67:../RunApplication.c **** {
 100              		.loc 1 67 0
 101              		.cfi_startproc
 102              		@ args = 0, pretend = 0, frame = 8
 103              		@ frame_needed = 1, uses_anonymous_args = 0
 104 0000 00482DE9 		stmfd	sp!, {fp, lr}
 105              	.LCFI2:
 106              		.cfi_def_cfa_offset 8
 107              		.cfi_offset 11, -8
 108              		.cfi_offset 14, -4
 109 0004 04B08DE2 		add	fp, sp, #4
 110              	.LCFI3:
 111              		.cfi_def_cfa 11, 4
 112 0008 08D04DE2 		sub	sp, sp, #8
  68:../RunApplication.c **** 	 uint32_t Status;
  69:../RunApplication.c **** 
  70:../RunApplication.c **** 	// Create any needed resources then the Application thread
  71:../RunApplication.c **** 	Status = InitializeDebugConsole();
 113              		.loc 1 71 0
 114 000c FEFFFFEB 		bl	InitializeDebugConsole
 115 0010 08000BE5 		str	r0, [fp, #-8]
  72:../RunApplication.c **** 	CheckStatus("Initialize Debug Console", Status);
 116              		.loc 1 72 0
 117 0014 40009FE5 		ldr	r0, .L8
 118 0018 08101BE5 		ldr	r1, [fp, #-8]
 119 001c FEFFFFEB 		bl	CheckStatus
  73:../RunApplication.c **** 
  74:../RunApplication.c **** 	// Create an Event so that alerts from CallBack routines can be monitored
  75:../RunApplication.c **** 	Status = CyU3PEventCreate(&CallbackEvent);
 120              		.loc 1 75 0
 121 0020 38009FE5 		ldr	r0, .L8+4
 122 0024 0010A0E3 		mov	r1, #0
 123 0028 2820A0E3 		mov	r2, #40
 124 002c FEFFFFEB 		bl	_txe_event_flags_create
 125 0030 08000BE5 		str	r0, [fp, #-8]
  76:../RunApplication.c **** 	CheckStatus("Create CallbackEvent", Status);
 126              		.loc 1 76 0
 127 0034 28009FE5 		ldr	r0, .L8+8
 128 0038 08101BE5 		ldr	r1, [fp, #-8]
 129 003c FEFFFFEB 		bl	CheckStatus
  77:../RunApplication.c **** 
  78:../RunApplication.c **** 	// Initialize CPLD / FPGA
  79:../RunApplication.c **** #if CPLD_CONNECTED
  80:../RunApplication.c **** 	//InitializeCPLD();
  81:../RunApplication.c **** #endif
  82:../RunApplication.c **** 
  83:../RunApplication.c **** #if FPGA_CONNECTED
  84:../RunApplication.c **** 	//InitializeFPGA();
  85:../RunApplication.c **** #endif
  86:../RunApplication.c **** 
  87:../RunApplication.c **** 	// Initialize the USB
  88:../RunApplication.c **** 	Status = InitializeUSB();
 130              		.loc 1 88 0
 131 0040 FEFFFFEB 		bl	InitializeUSB
 132 0044 08000BE5 		str	r0, [fp, #-8]
  89:../RunApplication.c **** 	CheckStatus("Initialize USB", Status);
 133              		.loc 1 89 0
 134 0048 18009FE5 		ldr	r0, .L8+12
 135 004c 08101BE5 		ldr	r1, [fp, #-8]
 136 0050 FEFFFFEB 		bl	CheckStatus
  90:../RunApplication.c **** }
 137              		.loc 1 90 0
 138 0054 04D04BE2 		sub	sp, fp, #4
 139              		@ sp needed
 140 0058 0088BDE8 		ldmfd	sp!, {fp, pc}
 141              	.L9:
 142              		.align	2
 143              	.L8:
 144 005c 1C000000 		.word	.LC1
 145 0060 00000000 		.word	CallbackEvent
 146 0064 38000000 		.word	.LC2
 147 0068 50000000 		.word	.LC3
 148              		.cfi_endproc
 149              	.LFE1:
 151              		.section	.rodata
 152 005f 00       		.align	2
 153              	.LC4:
 154 0060 53746172 		.ascii	"Start GPIO Clocks\000"
 154      74204750 
 154      494F2043 
 154      6C6F636B 
 154      7300
 155 0072 0000     		.align	2
 156              	.LC5:
 157 0074 43504C44 		.ascii	"CPLD_RESET Override\000"
 157      5F524553 
 157      4554204F 
 157      76657272 
 157      69646500 
 158              		.align	2
 159              	.LC6:
 160 0088 52657365 		.ascii	"Reset CPLD\000"
 160      74204350 
 160      4C4400
 161              		.section	.text.InitializeCPLD,"ax",%progbits
 162              		.align	2
 163              		.global	InitializeCPLD
 165              	InitializeCPLD:
 166              	.LFB2:
  91:../RunApplication.c **** 
  92:../RunApplication.c **** void InitializeCPLD(void)
  93:../RunApplication.c **** {
 167              		.loc 1 93 0
 168              		.cfi_startproc
 169              		@ args = 0, pretend = 0, frame = 40
 170              		@ frame_needed = 1, uses_anonymous_args = 0
 171 0000 00482DE9 		stmfd	sp!, {fp, lr}
 172              	.LCFI4:
 173              		.cfi_def_cfa_offset 8
 174              		.cfi_offset 11, -8
 175              		.cfi_offset 14, -4
 176 0004 04B08DE2 		add	fp, sp, #4
 177              	.LCFI5:
 178              		.cfi_def_cfa 11, 4
 179 0008 28D04DE2 		sub	sp, sp, #40
  94:../RunApplication.c **** 	CyU3PReturnStatus_t Status;
  95:../RunApplication.c **** 	CyU3PGpioClock_t GpioClock;
  96:../RunApplication.c **** 	CyU3PGpioSimpleConfig_t gpioConfig;
  97:../RunApplication.c **** 
  98:../RunApplication.c **** 
  99:../RunApplication.c **** 	// Startup the GPIO module clocks
 100:../RunApplication.c **** 	GpioClock.fastClkDiv = 2;
 180              		.loc 1 100 0
 181 000c 0230A0E3 		mov	r3, #2
 182 0010 14304BE5 		strb	r3, [fp, #-20]
 101:../RunApplication.c **** 	GpioClock.slowClkDiv = 0;
 183              		.loc 1 101 0
 184 0014 0030A0E3 		mov	r3, #0
 185 0018 13304BE5 		strb	r3, [fp, #-19]
 102:../RunApplication.c **** 	GpioClock.simpleDiv = CY_U3P_GPIO_SIMPLE_DIV_BY_2;
 186              		.loc 1 102 0
 187 001c 0030A0E3 		mov	r3, #0
 188 0020 0C304BE5 		strb	r3, [fp, #-12]
 103:../RunApplication.c **** 	GpioClock.clkSrc = CY_U3P_SYS_CLK;
 189              		.loc 1 103 0
 190 0024 0330A0E3 		mov	r3, #3
 191 0028 0B304BE5 		strb	r3, [fp, #-11]
 104:../RunApplication.c **** 	GpioClock.halfDiv = 0;
 192              		.loc 1 104 0
 193 002c 0030A0E3 		mov	r3, #0
 194 0030 10300BE5 		str	r3, [fp, #-16]
 105:../RunApplication.c **** 	Status = CyU3PGpioInit(&GpioClock, Gpio_IntrCB);
 195              		.loc 1 105 0
 196 0034 14304BE2 		sub	r3, fp, #20
 197 0038 0300A0E1 		mov	r0, r3
 198 003c 80109FE5 		ldr	r1, .L11
 199 0040 FEFFFFEB 		bl	CyU3PGpioInit
 200 0044 08000BE5 		str	r0, [fp, #-8]
 106:../RunApplication.c **** 	CheckStatus("Start GPIO Clocks", Status);
 201              		.loc 1 106 0
 202 0048 78009FE5 		ldr	r0, .L11+4
 203 004c 08101BE5 		ldr	r1, [fp, #-8]
 204 0050 FEFFFFEB 		bl	CheckStatus
 107:../RunApplication.c **** 
 108:../RunApplication.c **** 	// Need to claim CTRL[10] from the GPIF Interface
 109:../RunApplication.c **** 	Status = CyU3PDeviceGpioOverride(CPLD_RESET, CyTrue);
 205              		.loc 1 109 0
 206 0054 1B00A0E3 		mov	r0, #27
 207 0058 0110A0E3 		mov	r1, #1
 208 005c FEFFFFEB 		bl	CyU3PDeviceGpioOverride
 209 0060 08000BE5 		str	r0, [fp, #-8]
 110:../RunApplication.c **** 	CheckStatus("CPLD_RESET Override", Status);
 210              		.loc 1 110 0
 211 0064 60009FE5 		ldr	r0, .L11+8
 212 0068 08101BE5 		ldr	r1, [fp, #-8]
 213 006c FEFFFFEB 		bl	CheckStatus
 111:../RunApplication.c **** 
 112:../RunApplication.c **** 	// Reset by driving CPLD_RESET High
 113:../RunApplication.c **** 	CyU3PMemSet((uint8_t *)&gpioConfig, 0, sizeof(gpioConfig));
 214              		.loc 1 113 0
 215 0070 28304BE2 		sub	r3, fp, #40
 216 0074 0300A0E1 		mov	r0, r3
 217 0078 0010A0E3 		mov	r1, #0
 218 007c 1420A0E3 		mov	r2, #20
 219 0080 FEFFFFEB 		bl	CyU3PMemSet
 114:../RunApplication.c **** 	gpioConfig.outValue = 1;
 220              		.loc 1 114 0
 221 0084 0130A0E3 		mov	r3, #1
 222 0088 28300BE5 		str	r3, [fp, #-40]
 115:../RunApplication.c **** 	gpioConfig.driveLowEn = CyTrue;
 223              		.loc 1 115 0
 224 008c 0130A0E3 		mov	r3, #1
 225 0090 24300BE5 		str	r3, [fp, #-36]
 116:../RunApplication.c **** 	gpioConfig.driveHighEn = CyTrue;
 226              		.loc 1 116 0
 227 0094 0130A0E3 		mov	r3, #1
 228 0098 20300BE5 		str	r3, [fp, #-32]
 117:../RunApplication.c **** 	Status = CyU3PGpioSetSimpleConfig(CPLD_RESET, &gpioConfig);
 229              		.loc 1 117 0
 230 009c 28304BE2 		sub	r3, fp, #40
 231 00a0 1B00A0E3 		mov	r0, #27
 232 00a4 0310A0E1 		mov	r1, r3
 233 00a8 FEFFFFEB 		bl	CyU3PGpioSetSimpleConfig
 234 00ac 08000BE5 		str	r0, [fp, #-8]
 118:../RunApplication.c **** 	CheckStatus("Reset CPLD", Status);
 235              		.loc 1 118 0
 236 00b0 18009FE5 		ldr	r0, .L11+12
 237 00b4 08101BE5 		ldr	r1, [fp, #-8]
 238 00b8 FEFFFFEB 		bl	CheckStatus
 119:../RunApplication.c **** }
 239              		.loc 1 119 0
 240 00bc 04D04BE2 		sub	sp, fp, #4
 241              		@ sp needed
 242 00c0 0088BDE8 		ldmfd	sp!, {fp, pc}
 243              	.L12:
 244              		.align	2
 245              	.L11:
 246 00c4 00000000 		.word	Gpio_IntrCB
 247 00c8 60000000 		.word	.LC4
 248 00cc 74000000 		.word	.LC5
 249 00d0 88000000 		.word	.LC6
 250              		.cfi_endproc
 251              	.LFE2:
 253              		.section	.rodata
 254 0093 00       		.align	2
 255              	.LC7:
 256 0094 43726561 		.ascii	"Create Event\000"
 256      74652045 
 256      76656E74 
 256      00
 257 00a1 000000   		.align	2
 258              	.LC8:
 259 00a4 0D0A2573 		.ascii	"\015\012%s started with %d\000"
 259      20737461 
 259      72746564 
 259      20776974 
 259      68202564 
 260 00b9 000000   		.align	2
 261              	.LC9:
 262 00bc 25642C20 		.ascii	"%d, \000"
 262      00
 263 00c1 000000   		.align	2
 264              	.LC10:
 265 00c4 0D0A4170 		.ascii	"\015\012Application failed to initialize. Error cod"
 265      706C6963 
 265      6174696F 
 265      6E206661 
 265      696C6564 
 266 00f1 653A2025 		.ascii	"e: %d.\015\012\000"
 266      642E0D0A 
 266      00
 267              		.section	.text.ApplicationThread_Entry,"ax",%progbits
 268              		.align	2
 269              		.global	ApplicationThread_Entry
 271              	ApplicationThread_Entry:
 272              	.LFB3:
 120:../RunApplication.c **** 
 121:../RunApplication.c **** void ApplicationThread_Entry (uint32_t Value)
 122:../RunApplication.c **** {
 273              		.loc 1 122 0
 274              		.cfi_startproc
 275              		@ args = 0, pretend = 0, frame = 32
 276              		@ frame_needed = 1, uses_anonymous_args = 0
 277 0000 00482DE9 		stmfd	sp!, {fp, lr}
 278              	.LCFI6:
 279              		.cfi_def_cfa_offset 8
 280              		.cfi_offset 11, -8
 281              		.cfi_offset 14, -4
 282 0004 04B08DE2 		add	fp, sp, #4
 283              	.LCFI7:
 284              		.cfi_def_cfa 11, 4
 285 0008 38D04DE2 		sub	sp, sp, #56
 286 000c 20000BE5 		str	r0, [fp, #-32]
 123:../RunApplication.c **** 	int32_t Seconds = 0;
 287              		.loc 1 123 0
 288 0010 0030A0E3 		mov	r3, #0
 289 0014 08300BE5 		str	r3, [fp, #-8]
 124:../RunApplication.c ****     CyU3PReturnStatus_t Status,Count;
 125:../RunApplication.c ****     uint32_t ActualEvents;
 126:../RunApplication.c ****     char* ThreadName;
 127:../RunApplication.c **** 
 128:../RunApplication.c **** #if CPLD_CONNECTED
 129:../RunApplication.c ****     Status = CyU3PGpioSetValue(CPLD_RESET,CyFalse);
 130:../RunApplication.c ****     CheckStatus("Disable Reset CPLD", Status);
 131:../RunApplication.c **** #endif
 132:../RunApplication.c ****     // Create an Event which will allow the different threads/modules to synchronize
 133:../RunApplication.c ****     Status = CyU3PEventCreate(&glApplicationEvent);
 290              		.loc 1 133 0
 291 0018 84019FE5 		ldr	r0, .L23
 292 001c 0010A0E3 		mov	r1, #0
 293 0020 2820A0E3 		mov	r2, #40
 294 0024 FEFFFFEB 		bl	_txe_event_flags_create
 295 0028 10000BE5 		str	r0, [fp, #-16]
 134:../RunApplication.c ****     CheckStatus("Create Event", Status);
 296              		.loc 1 134 0
 297 002c 74019FE5 		ldr	r0, .L23+4
 298 0030 10101BE5 		ldr	r1, [fp, #-16]
 299 0034 FEFFFFEB 		bl	CheckStatus
 135:../RunApplication.c **** 
 136:../RunApplication.c ****     if (Status == CY_U3P_SUCCESS)
 300              		.loc 1 136 0
 301 0038 10301BE5 		ldr	r3, [fp, #-16]
 302 003c 000053E3 		cmp	r3, #0
 303 0040 5200001A 		bne	.L14
 137:../RunApplication.c ****     {
 138:../RunApplication.c ****     	CyU3PThreadInfoGet(&ApplicationThread, &ThreadName, 0, 0, 0);
 304              		.loc 1 138 0
 305 0044 18304BE2 		sub	r3, fp, #24
 306 0048 0020A0E3 		mov	r2, #0
 307 004c 00208DE5 		str	r2, [sp]
 308 0050 0020A0E3 		mov	r2, #0
 309 0054 04208DE5 		str	r2, [sp, #4]
 310 0058 0020A0E3 		mov	r2, #0
 311 005c 08208DE5 		str	r2, [sp, #8]
 312 0060 0020A0E3 		mov	r2, #0
 313 0064 0C208DE5 		str	r2, [sp, #12]
 314 0068 0020A0E3 		mov	r2, #0
 315 006c 10208DE5 		str	r2, [sp, #16]
 316 0070 34019FE5 		ldr	r0, .L23+8
 317 0074 0310A0E1 		mov	r1, r3
 318 0078 0020A0E3 		mov	r2, #0
 319 007c 0030A0E3 		mov	r3, #0
 320 0080 FEFFFFEB 		bl	_txe_thread_info_get
 139:../RunApplication.c ****     	ThreadName += 3;	// Skip numeric ID
 321              		.loc 1 139 0
 322 0084 18301BE5 		ldr	r3, [fp, #-24]
 323 0088 033083E2 		add	r3, r3, #3
 324 008c 18300BE5 		str	r3, [fp, #-24]
 140:../RunApplication.c ****     	CyU3PDebugPrint(4, "\r\n%s started with %d", ThreadName, Value);
 325              		.loc 1 140 0
 326 0090 18301BE5 		ldr	r3, [fp, #-24]
 327 0094 0400A0E3 		mov	r0, #4
 328 0098 10119FE5 		ldr	r1, .L23+12
 329 009c 0320A0E1 		mov	r2, r3
 330 00a0 20301BE5 		ldr	r3, [fp, #-32]
 331 00a4 FEFFFFEB 		bl	CyU3PDebugPrint
 141:../RunApplication.c ****     	// Now run forever
 142:../RunApplication.c **** 
 143:../RunApplication.c ****     	while (!glIsApplicationActive)
 332              		.loc 1 143 0
 333 00a8 0D0000EA 		b	.L15
 334              	.L16:
 144:../RunApplication.c ****     	{
 145:../RunApplication.c ****     		// Check for USB CallBack Events every 100msec
 146:../RunApplication.c ****     		Status = CyU3PEventGet(&CallbackEvent, USB_EVENTS, CYU3P_EVENT_OR_CLEAR, &ActualEvents, 100);
 335              		.loc 1 146 0
 336 00ac 14304BE2 		sub	r3, fp, #20
 337 00b0 6420A0E3 		mov	r2, #100
 338 00b4 00208DE5 		str	r2, [sp]
 339 00b8 F4009FE5 		ldr	r0, .L23+16
 340 00bc F4109FE5 		ldr	r1, .L23+20
 341 00c0 0120A0E3 		mov	r2, #1
 342 00c4 FEFFFFEB 		bl	_txe_event_flags_get
 343 00c8 10000BE5 		str	r0, [fp, #-16]
 147:../RunApplication.c ****     		if (Status == TX_SUCCESS) DebugPrintEvent(ActualEvents);
 344              		.loc 1 147 0
 345 00cc 10301BE5 		ldr	r3, [fp, #-16]
 346 00d0 000053E3 		cmp	r3, #0
 347 00d4 0200001A 		bne	.L15
 348              		.loc 1 147 0 is_stmt 0 discriminator 1
 349 00d8 14301BE5 		ldr	r3, [fp, #-20]
 350 00dc 0300A0E1 		mov	r0, r3
 351 00e0 FEFFFFEB 		bl	DebugPrintEvent
 352              	.L15:
 143:../RunApplication.c ****     	{
 353              		.loc 1 143 0 is_stmt 1 discriminator 1
 354 00e4 D0309FE5 		ldr	r3, .L23+24
 355 00e8 003093E5 		ldr	r3, [r3]
 356 00ec 000053E3 		cmp	r3, #0
 357 00f0 EDFFFF0A 		beq	.L16
 358              	.L21:
 148:../RunApplication.c ****     	}
 149:../RunApplication.c **** 
 150:../RunApplication.c ****     	while (1)
 151:../RunApplication.c ****     	{
 152:../RunApplication.c ****     		for (Count = 0; Count<10; Count++)
 359              		.loc 1 152 0
 360 00f4 0030A0E3 		mov	r3, #0
 361 00f8 0C300BE5 		str	r3, [fp, #-12]
 362 00fc 180000EA 		b	.L17
 363              	.L20:
 153:../RunApplication.c ****     		{
 154:../RunApplication.c ****     			// Check for User Commands (and other CallBack Events) every 100msec
 155:../RunApplication.c ****     			CyU3PThreadSleep(100);
 364              		.loc 1 155 0
 365 0100 6400A0E3 		mov	r0, #100
 366 0104 FEFFFFEB 		bl	_tx_thread_sleep
 156:../RunApplication.c ****     			Status = CyU3PEventGet(&CallbackEvent, ANY_EVENT, CYU3P_EVENT_OR_CLEAR, &ActualEvents, TX_NO
 367              		.loc 1 156 0
 368 0108 14304BE2 		sub	r3, fp, #20
 369 010c 0020A0E3 		mov	r2, #0
 370 0110 00208DE5 		str	r2, [sp]
 371 0114 98009FE5 		ldr	r0, .L23+16
 372 0118 FF14E0E3 		mvn	r1, #-16777216
 373 011c 0120A0E3 		mov	r2, #1
 374 0120 FEFFFFEB 		bl	_txe_event_flags_get
 375 0124 10000BE5 		str	r0, [fp, #-16]
 157:../RunApplication.c ****     			if (Status == TX_SUCCESS)
 376              		.loc 1 157 0
 377 0128 10301BE5 		ldr	r3, [fp, #-16]
 378 012c 000053E3 		cmp	r3, #0
 379 0130 0800001A 		bne	.L18
 158:../RunApplication.c ****     			{
 159:../RunApplication.c ****     				if (ActualEvents & USER_COMMAND_AVAILABLE) ParseCommand();
 380              		.loc 1 159 0
 381 0134 14301BE5 		ldr	r3, [fp, #-20]
 382 0138 173003E2 		and	r3, r3, #23
 383 013c 000053E3 		cmp	r3, #0
 384 0140 0100000A 		beq	.L19
 385              		.loc 1 159 0 is_stmt 0 discriminator 1
 386 0144 FEFFFFEB 		bl	ParseCommand
 387 0148 020000EA 		b	.L18
 388              	.L19:
 160:../RunApplication.c ****     				else DebugPrintEvent(ActualEvents);
 389              		.loc 1 160 0 is_stmt 1
 390 014c 14301BE5 		ldr	r3, [fp, #-20]
 391 0150 0300A0E1 		mov	r0, r3
 392 0154 FEFFFFEB 		bl	DebugPrintEvent
 393              	.L18:
 152:../RunApplication.c ****     		{
 394              		.loc 1 152 0
 395 0158 0C301BE5 		ldr	r3, [fp, #-12]
 396 015c 013083E2 		add	r3, r3, #1
 397 0160 0C300BE5 		str	r3, [fp, #-12]
 398              	.L17:
 152:../RunApplication.c ****     		{
 399              		.loc 1 152 0 is_stmt 0 discriminator 1
 400 0164 0C301BE5 		ldr	r3, [fp, #-12]
 401 0168 090053E3 		cmp	r3, #9
 402 016c E3FFFF9A 		bls	.L20
 161:../RunApplication.c ****     			}
 162:../RunApplication.c ****     		}
 163:../RunApplication.c ****     		CyU3PDebugPrint(4, "%d, ", Seconds++);
 403              		.loc 1 163 0 is_stmt 1
 404 0170 08301BE5 		ldr	r3, [fp, #-8]
 405 0174 012083E2 		add	r2, r3, #1
 406 0178 08200BE5 		str	r2, [fp, #-8]
 407 017c 0400A0E3 		mov	r0, #4
 408 0180 38109FE5 		ldr	r1, .L23+28
 409 0184 0320A0E1 		mov	r2, r3
 410 0188 FEFFFFEB 		bl	CyU3PDebugPrint
 164:../RunApplication.c **** 		}
 411              		.loc 1 164 0
 412 018c D8FFFFEA 		b	.L21
 413              	.L14:
 165:../RunApplication.c ****     }
 166:../RunApplication.c ****     CyU3PDebugPrint(4, "\r\nApplication failed to initialize. Error code: %d.\r\n", Status);
 414              		.loc 1 166 0
 415 0190 0400A0E3 		mov	r0, #4
 416 0194 28109FE5 		ldr	r1, .L23+32
 417 0198 10201BE5 		ldr	r2, [fp, #-16]
 418 019c FEFFFFEB 		bl	CyU3PDebugPrint
 419              	.L22:
 167:../RunApplication.c ****     while (1);		// Hang here
 420              		.loc 1 167 0 discriminator 1
 421 01a0 FEFFFFEA 		b	.L22
 422              	.L24:
 423              		.align	2
 424              	.L23:
 425 01a4 00000000 		.word	glApplicationEvent
 426 01a8 94000000 		.word	.LC7
 427 01ac 00000000 		.word	ApplicationThread
 428 01b0 A4000000 		.word	.LC8
 429 01b4 00000000 		.word	CallbackEvent
 430 01b8 FFFF7F00 		.word	8388607
 431 01bc 00000000 		.word	glIsApplicationActive
 432 01c0 BC000000 		.word	.LC9
 433 01c4 C4000000 		.word	.LC10
 434              		.cfi_endproc
 435              	.LFE3:
 437              		.section	.rodata
 438 00fa 0000     		.align	2
 439              	.LC11:
 440 00fc 4C454420 		.ascii	"LED Initialized\000"
 440      496E6974 
 440      69616C69 
 440      7A656400 
 441              		.align	2
 442              	.LC12:
 443 010c 42757474 		.ascii	"Button Initialized\000"
 443      6F6E2049 
 443      6E697469 
 443      616C697A 
 443      656400
 444              		.section	.text.LedBlinkingThread,"ax",%progbits
 445              		.align	2
 446              		.global	LedBlinkingThread
 448              	LedBlinkingThread:
 449              	.LFB4:
 168:../RunApplication.c **** }
 169:../RunApplication.c **** 
 170:../RunApplication.c **** 
 171:../RunApplication.c **** void LedBlinkingThread(uint32_t Value)
 172:../RunApplication.c **** {
 450              		.loc 1 172 0
 451              		.cfi_startproc
 452              		@ args = 0, pretend = 0, frame = 48
 453              		@ frame_needed = 1, uses_anonymous_args = 0
 454 0000 00482DE9 		stmfd	sp!, {fp, lr}
 455              	.LCFI8:
 456              		.cfi_def_cfa_offset 8
 457              		.cfi_offset 11, -8
 458              		.cfi_offset 14, -4
 459 0004 04B08DE2 		add	fp, sp, #4
 460              	.LCFI9:
 461              		.cfi_def_cfa 11, 4
 462 0008 30D04DE2 		sub	sp, sp, #48
 463 000c 30000BE5 		str	r0, [fp, #-48]
 173:../RunApplication.c **** 	uint8_t Counter = 0; //Counter for the blinking
 464              		.loc 1 173 0
 465 0010 0030A0E3 		mov	r3, #0
 466 0014 05304BE5 		strb	r3, [fp, #-5]
 174:../RunApplication.c **** 	CyU3PGpioSimpleConfig_t GpioConfig;
 175:../RunApplication.c **** 	CyU3PGpioClock_t GpioClock;
 176:../RunApplication.c **** 	CyU3PReturnStatus_t Status;
 177:../RunApplication.c **** 
 178:../RunApplication.c **** 	GpioClock.fastClkDiv = 2;
 467              		.loc 1 178 0
 468 0018 0230A0E3 		mov	r3, #2
 469 001c 2C304BE5 		strb	r3, [fp, #-44]
 179:../RunApplication.c **** 	GpioClock.slowClkDiv = 0;
 470              		.loc 1 179 0
 471 0020 0030A0E3 		mov	r3, #0
 472 0024 2B304BE5 		strb	r3, [fp, #-43]
 180:../RunApplication.c **** 	GpioClock.simpleDiv = CY_U3P_GPIO_SIMPLE_DIV_BY_2;
 473              		.loc 1 180 0
 474 0028 0030A0E3 		mov	r3, #0
 475 002c 24304BE5 		strb	r3, [fp, #-36]
 181:../RunApplication.c **** 	GpioClock.clkSrc = CY_U3P_SYS_CLK;
 476              		.loc 1 181 0
 477 0030 0330A0E3 		mov	r3, #3
 478 0034 23304BE5 		strb	r3, [fp, #-35]
 182:../RunApplication.c **** 	GpioClock.halfDiv = 0;
 479              		.loc 1 182 0
 480 0038 0030A0E3 		mov	r3, #0
 481 003c 28300BE5 		str	r3, [fp, #-40]
 183:../RunApplication.c **** 	Status = CyU3PGpioInit(&GpioClock, Gpio_IntrCB);
 482              		.loc 1 183 0
 483 0040 2C304BE2 		sub	r3, fp, #44
 484 0044 0300A0E1 		mov	r0, r3
 485 0048 F0109FE5 		ldr	r1, .L27
 486 004c FEFFFFEB 		bl	CyU3PGpioInit
 487 0050 0C000BE5 		str	r0, [fp, #-12]
 184:../RunApplication.c **** 	CheckStatus("Start GPIO Clocks", Status);
 488              		.loc 1 184 0
 489 0054 E8009FE5 		ldr	r0, .L27+4
 490 0058 0C101BE5 		ldr	r1, [fp, #-12]
 491 005c FEFFFFEB 		bl	CheckStatus
 185:../RunApplication.c **** 
 186:../RunApplication.c **** 	CyU3PDeviceGpioOverride(LED,true);
 492              		.loc 1 186 0
 493 0060 3600A0E3 		mov	r0, #54
 494 0064 0110A0E3 		mov	r1, #1
 495 0068 FEFFFFEB 		bl	CyU3PDeviceGpioOverride
 187:../RunApplication.c **** 	CyU3PMemSet((uint8_t *)&GpioConfig, 0, sizeof(GpioConfig));
 496              		.loc 1 187 0
 497 006c 20304BE2 		sub	r3, fp, #32
 498 0070 0300A0E1 		mov	r0, r3
 499 0074 0010A0E3 		mov	r1, #0
 500 0078 1420A0E3 		mov	r2, #20
 501 007c FEFFFFEB 		bl	CyU3PMemSet
 188:../RunApplication.c **** 	GpioConfig.driveHighEn = true;
 502              		.loc 1 188 0
 503 0080 0130A0E3 		mov	r3, #1
 504 0084 18300BE5 		str	r3, [fp, #-24]
 189:../RunApplication.c **** 	GpioConfig.driveLowEn = true;
 505              		.loc 1 189 0
 506 0088 0130A0E3 		mov	r3, #1
 507 008c 1C300BE5 		str	r3, [fp, #-28]
 190:../RunApplication.c **** 	Status = CyU3PGpioSetSimpleConfig(LED,&GpioConfig);
 508              		.loc 1 190 0
 509 0090 20304BE2 		sub	r3, fp, #32
 510 0094 3600A0E3 		mov	r0, #54
 511 0098 0310A0E1 		mov	r1, r3
 512 009c FEFFFFEB 		bl	CyU3PGpioSetSimpleConfig
 513 00a0 0C000BE5 		str	r0, [fp, #-12]
 191:../RunApplication.c **** 	CheckStatus("LED Initialized", Status);
 514              		.loc 1 191 0
 515 00a4 9C009FE5 		ldr	r0, .L27+8
 516 00a8 0C101BE5 		ldr	r1, [fp, #-12]
 517 00ac FEFFFFEB 		bl	CheckStatus
 192:../RunApplication.c **** 
 193:../RunApplication.c **** 	CyU3PMemSet((uint8_t *)&GpioConfig, 0, sizeof(GpioConfig));
 518              		.loc 1 193 0
 519 00b0 20304BE2 		sub	r3, fp, #32
 520 00b4 0300A0E1 		mov	r0, r3
 521 00b8 0010A0E3 		mov	r1, #0
 522 00bc 1420A0E3 		mov	r2, #20
 523 00c0 FEFFFFEB 		bl	CyU3PMemSet
 194:../RunApplication.c **** 	GpioConfig.inputEn = true;
 524              		.loc 1 194 0
 525 00c4 0130A0E3 		mov	r3, #1
 526 00c8 14300BE5 		str	r3, [fp, #-20]
 195:../RunApplication.c **** 	GpioConfig.intrMode = CY_U3P_GPIO_INTR_NEG_EDGE;
 527              		.loc 1 195 0
 528 00cc 0230A0E3 		mov	r3, #2
 529 00d0 10304BE5 		strb	r3, [fp, #-16]
 196:../RunApplication.c **** 	Status = CyU3PGpioSetSimpleConfig(BUTTON,&GpioConfig);
 530              		.loc 1 196 0
 531 00d4 20304BE2 		sub	r3, fp, #32
 532 00d8 2D00A0E3 		mov	r0, #45
 533 00dc 0310A0E1 		mov	r1, r3
 534 00e0 FEFFFFEB 		bl	CyU3PGpioSetSimpleConfig
 535 00e4 0C000BE5 		str	r0, [fp, #-12]
 197:../RunApplication.c **** 	CheckStatus("Button Initialized", Status);
 536              		.loc 1 197 0
 537 00e8 5C009FE5 		ldr	r0, .L27+12
 538 00ec 0C101BE5 		ldr	r1, [fp, #-12]
 539 00f0 FEFFFFEB 		bl	CheckStatus
 198:../RunApplication.c **** 
 199:../RunApplication.c **** 	Delay = 1000;
 540              		.loc 1 199 0
 541 00f4 54309FE5 		ldr	r3, .L27+16
 542 00f8 FA2FA0E3 		mov	r2, #1000
 543 00fc B020C3E1 		strh	r2, [r3]	@ movhi
 200:../RunApplication.c **** 	CyU3PThreadSleep(Delay);
 544              		.loc 1 200 0
 545 0100 48309FE5 		ldr	r3, .L27+16
 546 0104 B030D3E1 		ldrh	r3, [r3]
 547 0108 0300A0E1 		mov	r0, r3
 548 010c FEFFFFEB 		bl	_tx_thread_sleep
 549              	.L26:
 201:../RunApplication.c **** 	while(1)
 202:../RunApplication.c **** 	{
 203:../RunApplication.c **** 		CyU3PGpioSetValue(LED,(1 & Counter++));
 550              		.loc 1 203 0 discriminator 1
 551 0110 05305BE5 		ldrb	r3, [fp, #-5]	@ zero_extendqisi2
 552 0114 012083E2 		add	r2, r3, #1
 553 0118 05204BE5 		strb	r2, [fp, #-5]
 554 011c 013003E2 		and	r3, r3, #1
 555 0120 3600A0E3 		mov	r0, #54
 556 0124 0310A0E1 		mov	r1, r3
 557 0128 FEFFFFEB 		bl	CyU3PGpioSetValue
 204:../RunApplication.c **** 		CyU3PThreadSleep(Delay);
 558              		.loc 1 204 0 discriminator 1
 559 012c 1C309FE5 		ldr	r3, .L27+16
 560 0130 B030D3E1 		ldrh	r3, [r3]
 561 0134 0300A0E1 		mov	r0, r3
 562 0138 FEFFFFEB 		bl	_tx_thread_sleep
 205:../RunApplication.c **** 	}
 563              		.loc 1 205 0 discriminator 1
 564 013c F3FFFFEA 		b	.L26
 565              	.L28:
 566              		.align	2
 567              	.L27:
 568 0140 00000000 		.word	Gpio_IntrCB
 569 0144 60000000 		.word	.LC4
 570 0148 FC000000 		.word	.LC11
 571 014c 0C010000 		.word	.LC12
 572 0150 00000000 		.word	Delay
 573              		.cfi_endproc
 574              	.LFE4:
 576              		.section	.rodata
 577 011f 00       		.align	2
 578              	.LC13:
 579 0120 536C6176 		.ascii	"Slave FIFO FPGA\000"
 579      65204649 
 579      464F2046 
 579      50474100 
 580              		.align	2
 581              	.LC14:
 582 0130 4C454420 		.ascii	"LED Blinking Task\000"
 582      426C696E 
 582      6B696E67 
 582      20546173 
 582      6B00
 583 0142 0000     		.section	.text.CyFxApplicationDefine,"ax",%progbits
 584              		.align	2
 585              		.global	CyFxApplicationDefine
 587              	CyFxApplicationDefine:
 588              	.LFB5:
 206:../RunApplication.c **** }
 207:../RunApplication.c **** 
 208:../RunApplication.c **** // ApplicationDefine function is called by RTOS to startup the application thread after it has init
 209:../RunApplication.c **** void CyFxApplicationDefine(void)
 210:../RunApplication.c **** {
 589              		.loc 1 210 0
 590              		.cfi_startproc
 591              		@ args = 0, pretend = 0, frame = 8
 592              		@ frame_needed = 1, uses_anonymous_args = 0
 593 0000 00482DE9 		stmfd	sp!, {fp, lr}
 594              	.LCFI10:
 595              		.cfi_def_cfa_offset 8
 596              		.cfi_offset 11, -8
 597              		.cfi_offset 14, -4
 598 0004 04B08DE2 		add	fp, sp, #4
 599              	.LCFI11:
 600              		.cfi_def_cfa 11, 4
 601 0008 28D04DE2 		sub	sp, sp, #40
 211:../RunApplication.c ****     void *StackPtr = NULL;
 602              		.loc 1 211 0
 603 000c 0030A0E3 		mov	r3, #0
 604 0010 08300BE5 		str	r3, [fp, #-8]
 212:../RunApplication.c ****     uint32_t Status;
 213:../RunApplication.c **** 
 214:../RunApplication.c ****     // Initialize the devices
 215:../RunApplication.c ****     InitializeDevices();
 605              		.loc 1 215 0
 606 0014 FEFFFFEB 		bl	InitializeDevices
 216:../RunApplication.c **** 
 217:../RunApplication.c ****     // Create the threads
 218:../RunApplication.c ****     StackPtr = CyU3PMemAlloc(APPLICATION_THREAD_STACK);
 607              		.loc 1 218 0
 608 0018 010AA0E3 		mov	r0, #4096
 609 001c FEFFFFEB 		bl	CyU3PMemAlloc
 610 0020 08000BE5 		str	r0, [fp, #-8]
 219:../RunApplication.c ****     Status = CyU3PThreadCreate (&ApplicationThread, // Handle to my Application Thread
 611              		.loc 1 219 0
 612 0024 08301BE5 		ldr	r3, [fp, #-8]
 613 0028 00308DE5 		str	r3, [sp]
 614 002c 013AA0E3 		mov	r3, #4096
 615 0030 04308DE5 		str	r3, [sp, #4]
 616 0034 0830A0E3 		mov	r3, #8
 617 0038 08308DE5 		str	r3, [sp, #8]
 618 003c 0830A0E3 		mov	r3, #8
 619 0040 0C308DE5 		str	r3, [sp, #12]
 620 0044 0030A0E3 		mov	r3, #0
 621 0048 10308DE5 		str	r3, [sp, #16]
 622 004c 0130A0E3 		mov	r3, #1
 623 0050 14308DE5 		str	r3, [sp, #20]
 624 0054 A830A0E3 		mov	r3, #168
 625 0058 18308DE5 		str	r3, [sp, #24]
 626 005c 84009FE5 		ldr	r0, .L32
 627 0060 84109FE5 		ldr	r1, .L32+4
 628 0064 84209FE5 		ldr	r2, .L32+8
 629 0068 0030A0E3 		mov	r3, #0
 630 006c FEFFFFEB 		bl	_txe_thread_create
 631 0070 0C000BE5 		str	r0, [fp, #-12]
 220:../RunApplication.c ****             "Slave FIFO FPGA",                			// Thread ID and name
 221:../RunApplication.c ****             ApplicationThread_Entry,     			// Thread entry function
 222:../RunApplication.c ****             0,                             		// Parameter passed to Thread
 223:../RunApplication.c ****             StackPtr,                       		// Pointer to the allocated thread stack
 224:../RunApplication.c ****             APPLICATION_THREAD_STACK,               // Allocated thread stack size
 225:../RunApplication.c ****             APPLICATION_THREAD_PRIORITY,            // Thread priority
 226:../RunApplication.c ****             APPLICATION_THREAD_PRIORITY,            // = Thread priority so no preemption
 227:../RunApplication.c ****             CYU3P_NO_TIME_SLICE,            		// Time slice not supported in FX3 implementation
 228:../RunApplication.c ****             CYU3P_AUTO_START                		// Start the thread immediately
 229:../RunApplication.c ****             );
 230:../RunApplication.c **** 
 231:../RunApplication.c ****     StackPtr = CyU3PMemAlloc(APPLICATION_THREAD_STACK);
 632              		.loc 1 231 0
 633 0074 010AA0E3 		mov	r0, #4096
 634 0078 FEFFFFEB 		bl	CyU3PMemAlloc
 635 007c 08000BE5 		str	r0, [fp, #-8]
 232:../RunApplication.c ****     Status = CyU3PThreadCreate(&ThreadHandle[1],
 636              		.loc 1 232 0
 637 0080 08301BE5 		ldr	r3, [fp, #-8]
 638 0084 00308DE5 		str	r3, [sp]
 639 0088 013AA0E3 		mov	r3, #4096
 640 008c 04308DE5 		str	r3, [sp, #4]
 641 0090 0830A0E3 		mov	r3, #8
 642 0094 08308DE5 		str	r3, [sp, #8]
 643 0098 0830A0E3 		mov	r3, #8
 644 009c 0C308DE5 		str	r3, [sp, #12]
 645 00a0 0030A0E3 		mov	r3, #0
 646 00a4 10308DE5 		str	r3, [sp, #16]
 647 00a8 0130A0E3 		mov	r3, #1
 648 00ac 14308DE5 		str	r3, [sp, #20]
 649 00b0 A830A0E3 		mov	r3, #168
 650 00b4 18308DE5 		str	r3, [sp, #24]
 651 00b8 34009FE5 		ldr	r0, .L32+12
 652 00bc 34109FE5 		ldr	r1, .L32+16
 653 00c0 34209FE5 		ldr	r2, .L32+20
 654 00c4 0130A0E3 		mov	r3, #1
 655 00c8 FEFFFFEB 		bl	_txe_thread_create
 656 00cc 0C000BE5 		str	r0, [fp, #-12]
 233:../RunApplication.c ****     		"LED Blinking Task",
 234:../RunApplication.c ****     		LedBlinkingThread,
 235:../RunApplication.c ****     		1,
 236:../RunApplication.c ****     		StackPtr,
 237:../RunApplication.c ****     		APPLICATION_THREAD_STACK,
 238:../RunApplication.c ****     		APPLICATION_THREAD_PRIORITY,
 239:../RunApplication.c ****     		APPLICATION_THREAD_PRIORITY,
 240:../RunApplication.c ****     		CYU3P_NO_TIME_SLICE,
 241:../RunApplication.c ****     		CYU3P_AUTO_START);
 242:../RunApplication.c **** 
 243:../RunApplication.c ****     if (Status != CY_U3P_SUCCESS)
 657              		.loc 1 243 0
 658 00d0 0C301BE5 		ldr	r3, [fp, #-12]
 659 00d4 000053E3 		cmp	r3, #0
 660 00d8 0000000A 		beq	.L29
 661              	.L31:
 244:../RunApplication.c ****     {
 245:../RunApplication.c ****         /* Thread creation failed with the Status = error code */
 246:../RunApplication.c **** 
 247:../RunApplication.c ****         /* Add custom recovery or debug actions here */
 248:../RunApplication.c **** 
 249:../RunApplication.c ****         /* Application cannot continue. Loop indefinitely */
 250:../RunApplication.c ****         while(1);
 662              		.loc 1 250 0 discriminator 1
 663 00dc FEFFFFEA 		b	.L31
 664              	.L29:
 251:../RunApplication.c ****     }
 252:../RunApplication.c **** }
 665              		.loc 1 252 0
 666 00e0 04D04BE2 		sub	sp, fp, #4
 667              		@ sp needed
 668 00e4 0088BDE8 		ldmfd	sp!, {fp, pc}
 669              	.L33:
 670              		.align	2
 671              	.L32:
 672 00e8 00000000 		.word	ApplicationThread
 673 00ec 20010000 		.word	.LC13
 674 00f0 00000000 		.word	ApplicationThread_Entry
 675 00f4 A8000000 		.word	ThreadHandle+168
 676 00f8 30010000 		.word	.LC14
 677 00fc 00000000 		.word	LedBlinkingThread
 678              		.cfi_endproc
 679              	.LFE5:
 681              		.text
 682              	.Letext0:
 683              		.file 2 "c:\\program files (x86)\\cypress\\ez-usb fx3 sdk\\1.3\\arm gcc\\arm-none-eabi\\include\\s
 684              		.file 3 "C:\\Program Files (x86)\\Cypress\\EZ-USB FX3 SDK\\1.3\\/firmware/u3p_firmware/inc/cyu3typ
 685              		.file 4 "C:\\Program Files (x86)\\Cypress\\EZ-USB FX3 SDK\\1.3\\/firmware/u3p_firmware/inc/tx_port
 686              		.file 5 "C:\\Program Files (x86)\\Cypress\\EZ-USB FX3 SDK\\1.3\\/firmware/u3p_firmware/inc/tx_api.
 687              		.file 6 "C:\\Program Files (x86)\\Cypress\\EZ-USB FX3 SDK\\1.3\\/firmware/u3p_firmware/inc/cyu3dma
 688              		.file 7 "C:\\Program Files (x86)\\Cypress\\EZ-USB FX3 SDK\\1.3\\/firmware/u3p_firmware/inc/cyu3sys
 689              		.file 8 "C:\\Program Files (x86)\\Cypress\\EZ-USB FX3 SDK\\1.3\\/firmware/u3p_firmware/inc/cyu3err
 690              		.file 9 "C:\\Program Files (x86)\\Cypress\\EZ-USB FX3 SDK\\1.3\\/firmware/u3p_firmware/inc/cyu3lpp
 691              		.file 10 "C:\\Program Files (x86)\\Cypress\\EZ-USB FX3 SDK\\1.3\\/firmware/u3p_firmware/inc/cyu3gp
DEFINED SYMBOLS
                            *ABS*:00000000 RunApplication.c
                            *COM*:000000a8 ApplicationThread
                            *COM*:00000028 glApplicationEvent
                            *COM*:00000150 ThreadHandle
                            *COM*:00000004 glIsApplicationActive
                            *COM*:00000028 CallbackEvent
                            *COM*:00000002 Delay
C:\Users\Vinnu\AppData\Local\Temp\cci6tPDN.s:23     .rodata:00000000 $d
C:\Users\Vinnu\AppData\Local\Temp\cci6tPDN.s:27     .text.Gpio_IntrCB:00000000 $a
C:\Users\Vinnu\AppData\Local\Temp\cci6tPDN.s:30     .text.Gpio_IntrCB:00000000 Gpio_IntrCB
C:\Users\Vinnu\AppData\Local\Temp\cci6tPDN.s:79     .text.Gpio_IntrCB:00000058 $d
C:\Users\Vinnu\AppData\Local\Temp\cci6tPDN.s:95     .text.InitializeDevices:00000000 $a
C:\Users\Vinnu\AppData\Local\Temp\cci6tPDN.s:98     .text.InitializeDevices:00000000 InitializeDevices
C:\Users\Vinnu\AppData\Local\Temp\cci6tPDN.s:144    .text.InitializeDevices:0000005c $d
C:\Users\Vinnu\AppData\Local\Temp\cci6tPDN.s:162    .text.InitializeCPLD:00000000 $a
C:\Users\Vinnu\AppData\Local\Temp\cci6tPDN.s:165    .text.InitializeCPLD:00000000 InitializeCPLD
C:\Users\Vinnu\AppData\Local\Temp\cci6tPDN.s:246    .text.InitializeCPLD:000000c4 $d
C:\Users\Vinnu\AppData\Local\Temp\cci6tPDN.s:268    .text.ApplicationThread_Entry:00000000 $a
C:\Users\Vinnu\AppData\Local\Temp\cci6tPDN.s:271    .text.ApplicationThread_Entry:00000000 ApplicationThread_Entry
C:\Users\Vinnu\AppData\Local\Temp\cci6tPDN.s:425    .text.ApplicationThread_Entry:000001a4 $d
C:\Users\Vinnu\AppData\Local\Temp\cci6tPDN.s:445    .text.LedBlinkingThread:00000000 $a
C:\Users\Vinnu\AppData\Local\Temp\cci6tPDN.s:448    .text.LedBlinkingThread:00000000 LedBlinkingThread
C:\Users\Vinnu\AppData\Local\Temp\cci6tPDN.s:568    .text.LedBlinkingThread:00000140 $d
C:\Users\Vinnu\AppData\Local\Temp\cci6tPDN.s:584    .text.CyFxApplicationDefine:00000000 $a
C:\Users\Vinnu\AppData\Local\Temp\cci6tPDN.s:587    .text.CyFxApplicationDefine:00000000 CyFxApplicationDefine
C:\Users\Vinnu\AppData\Local\Temp\cci6tPDN.s:672    .text.CyFxApplicationDefine:000000e8 $d
                     .debug_frame:00000010 $d

UNDEFINED SYMBOLS
CyU3PDebugPrint
InitializeDebugConsole
CheckStatus
_txe_event_flags_create
InitializeUSB
CyU3PGpioInit
CyU3PDeviceGpioOverride
CyU3PMemSet
CyU3PGpioSetSimpleConfig
_txe_thread_info_get
_txe_event_flags_get
DebugPrintEvent
_tx_thread_sleep
ParseCommand
CyU3PGpioSetValue
CyU3PMemAlloc
_txe_thread_create
