   1              		.cpu arm926ej-s
   2              		.fpu softvfp
   3              		.eabi_attribute 20, 1
   4              		.eabi_attribute 21, 1
   5              		.eabi_attribute 23, 3
   6              		.eabi_attribute 24, 1
   7              		.eabi_attribute 25, 1
   8              		.eabi_attribute 26, 1
   9              		.eabi_attribute 30, 6
  10              		.eabi_attribute 34, 0
  11              		.eabi_attribute 18, 4
  12              		.file	"StartUp.c"
  13              		.text
  14              	.Ltext0:
  15              		.cfi_sections	.debug_frame
  16              		.section	.text.main,"ax",%progbits
  17              		.align	2
  18              		.global	main
  20              	main:
  21              	.LFB0:
  22              		.file 1 "../StartUp.c"
   1:../StartUp.c  **** /**
   2:../StartUp.c  ****  * @file	main.cpp
   3:../StartUp.c  ****  * @brief	The <b> main() </b> resides here... <br>
   4:../StartUp.c  ****  * 			Instantiates the basic settings of Fx3 and calls the kernel
   5:../StartUp.c  ****  *
   6:../StartUp.c  ****  * @author	Vinurudh Damarla
   7:../StartUp.c  ****  *
   8:../StartUp.c  ****  */
   9:../StartUp.c  **** 
  10:../StartUp.c  **** #include "Application.h"
  11:../StartUp.c  **** 
  12:../StartUp.c  **** /**
  13:../StartUp.c  ****  * @brief <b> main function </b><br>
  14:../StartUp.c  ****  * Sets up the CPU environment the starts the RTOS
  15:../StartUp.c  ****  *
  16:../StartUp.c  ****  * @return int, status OK
  17:../StartUp.c  ****  */
  18:../StartUp.c  **** int main (void)
  19:../StartUp.c  **** {
  23              		.loc 1 19 0
  24              		.cfi_startproc
  25              		@ args = 0, pretend = 0, frame = 64
  26              		@ frame_needed = 1, uses_anonymous_args = 0
  27 0000 00482DE9 		stmfd	sp!, {fp, lr}
  28              	.LCFI0:
  29              		.cfi_def_cfa_offset 8
  30              		.cfi_offset 11, -8
  31              		.cfi_offset 14, -4
  32 0004 04B08DE2 		add	fp, sp, #4
  33              	.LCFI1:
  34              		.cfi_def_cfa 11, 4
  35 0008 40D04DE2 		sub	sp, sp, #64
  20:../StartUp.c  ****     CyU3PIoMatrixConfig_t io_cfg;
  21:../StartUp.c  ****     CyU3PReturnStatus_t Status;
  22:../StartUp.c  ****     CyU3PSysClockConfig_t ClockConfig;
  23:../StartUp.c  **** 
  24:../StartUp.c  ****     // Clock setting
  25:../StartUp.c  ****     ClockConfig.setSysClk400  = CyTrue;
  36              		.loc 1 25 0
  37 000c 0130A0E3 		mov	r3, #1
  38 0010 40300BE5 		str	r3, [fp, #-64]
  26:../StartUp.c  ****     ClockConfig.cpuClkDiv     = 2;
  39              		.loc 1 26 0
  40 0014 0230A0E3 		mov	r3, #2
  41 0018 3C304BE5 		strb	r3, [fp, #-60]
  27:../StartUp.c  ****     ClockConfig.dmaClkDiv     = 2;
  42              		.loc 1 27 0
  43 001c 0230A0E3 		mov	r3, #2
  44 0020 3B304BE5 		strb	r3, [fp, #-59]
  28:../StartUp.c  ****     ClockConfig.mmioClkDiv    = 2;
  45              		.loc 1 28 0
  46 0024 0230A0E3 		mov	r3, #2
  47 0028 3A304BE5 		strb	r3, [fp, #-58]
  29:../StartUp.c  ****     ClockConfig.useStandbyClk = CyFalse;
  48              		.loc 1 29 0
  49 002c 0030A0E3 		mov	r3, #0
  50 0030 38300BE5 		str	r3, [fp, #-56]
  30:../StartUp.c  ****     ClockConfig.clkSrc        = CY_U3P_SYS_CLK;
  51              		.loc 1 30 0
  52 0034 0330A0E3 		mov	r3, #3
  53 0038 34304BE5 		strb	r3, [fp, #-52]
  31:../StartUp.c  ****     Status = CyU3PDeviceInit(&ClockConfig);
  54              		.loc 1 31 0
  55 003c 40304BE2 		sub	r3, fp, #64
  56 0040 0300A0E1 		mov	r0, r3
  57 0044 FEFFFFEB 		bl	CyU3PDeviceInit
  58 0048 08000BE5 		str	r0, [fp, #-8]
  32:../StartUp.c  **** 
  33:../StartUp.c  **** 
  34:../StartUp.c  ****    if (Status == CY_U3P_SUCCESS)
  59              		.loc 1 34 0
  60 004c 08301BE5 		ldr	r3, [fp, #-8]
  61 0050 000053E3 		cmp	r3, #0
  62 0054 2400001A 		bne	.L2
  35:../StartUp.c  ****     {
  36:../StartUp.c  **** 		Status = CyU3PDeviceCacheControl(CyTrue, CyTrue, CyTrue);
  63              		.loc 1 36 0
  64 0058 0100A0E3 		mov	r0, #1
  65 005c 0110A0E3 		mov	r1, #1
  66 0060 0120A0E3 		mov	r2, #1
  67 0064 FEFFFFEB 		bl	CyU3PDeviceCacheControl
  68 0068 08000BE5 		str	r0, [fp, #-8]
  37:../StartUp.c  **** 		if (Status == CY_U3P_SUCCESS)
  69              		.loc 1 37 0
  70 006c 08301BE5 		ldr	r3, [fp, #-8]
  71 0070 000053E3 		cmp	r3, #0
  72 0074 1C00001A 		bne	.L2
  38:../StartUp.c  **** 		{
  39:../StartUp.c  **** 			CyU3PMemSet((uint8_t *)&io_cfg, 0, sizeof(io_cfg));
  73              		.loc 1 39 0
  74 0078 30304BE2 		sub	r3, fp, #48
  75 007c 0300A0E1 		mov	r0, r3
  76 0080 0010A0E3 		mov	r1, #0
  77 0084 2820A0E3 		mov	r2, #40
  78 0088 FEFFFFEB 		bl	CyU3PMemSet
  40:../StartUp.c  **** 			io_cfg.isDQ32Bit = CyTrue;
  79              		.loc 1 40 0
  80 008c 0130A0E3 		mov	r3, #1
  81 0090 30300BE5 		str	r3, [fp, #-48]
  41:../StartUp.c  **** 			io_cfg.useI2C    = CyFalse;
  82              		.loc 1 41 0
  83 0094 0030A0E3 		mov	r3, #0
  84 0098 28300BE5 		str	r3, [fp, #-40]
  42:../StartUp.c  **** 			io_cfg.useI2S    = CyFalse;
  85              		.loc 1 42 0
  86 009c 0030A0E3 		mov	r3, #0
  87 00a0 24300BE5 		str	r3, [fp, #-36]
  43:../StartUp.c  **** 			io_cfg.useSpi    = CyFalse;
  88              		.loc 1 43 0
  89 00a4 0030A0E3 		mov	r3, #0
  90 00a8 20300BE5 		str	r3, [fp, #-32]
  44:../StartUp.c  **** 			io_cfg.useUart   = CyTrue;
  91              		.loc 1 44 0
  92 00ac 0130A0E3 		mov	r3, #1
  93 00b0 2C300BE5 		str	r3, [fp, #-44]
  45:../StartUp.c  **** 			io_cfg.gpioSimpleEn[0] = 0;
  94              		.loc 1 45 0
  95 00b4 0030A0E3 		mov	r3, #0
  96 00b8 18300BE5 		str	r3, [fp, #-24]
  46:../StartUp.c  **** 			io_cfg.gpioSimpleEn[1] = 1<<(45-32);
  97              		.loc 1 46 0
  98 00bc 023AA0E3 		mov	r3, #8192
  99 00c0 14300BE5 		str	r3, [fp, #-20]
  47:../StartUp.c  **** 			io_cfg.lppMode   = CY_U3P_IO_MATRIX_LPP_DEFAULT;
 100              		.loc 1 47 0
 101 00c4 0030A0E3 		mov	r3, #0
 102 00c8 1A304BE5 		strb	r3, [fp, #-26]
  48:../StartUp.c  **** 			Status = CyU3PDeviceConfigureIOMatrix(&io_cfg);
 103              		.loc 1 48 0
 104 00cc 30304BE2 		sub	r3, fp, #48
 105 00d0 0300A0E1 		mov	r0, r3
 106 00d4 FEFFFFEB 		bl	CyU3PDeviceConfigureIOMatrix
 107 00d8 08000BE5 		str	r0, [fp, #-8]
  49:../StartUp.c  **** 			if (Status == CY_U3P_SUCCESS) CyU3PKernelEntry();
 108              		.loc 1 49 0
 109 00dc 08301BE5 		ldr	r3, [fp, #-8]
 110 00e0 000053E3 		cmp	r3, #0
 111 00e4 0000001A 		bne	.L2
 112              		.loc 1 49 0 is_stmt 0 discriminator 1
 113 00e8 FEFFFFEB 		bl	_tx_initialize_kernel_enter
 114              	.L2:
  50:../StartUp.c  **** 		}
  51:../StartUp.c  **** 	}
  52:../StartUp.c  ****     while (1);
 115              		.loc 1 52 0 is_stmt 1 discriminator 1
 116 00ec FEFFFFEA 		b	.L2
 117              		.cfi_endproc
 118              	.LFE0:
 120              		.text
 121              	.Letext0:
 122              		.file 2 "c:\\program files (x86)\\cypress\\ez-usb fx3 sdk\\1.3\\arm gcc\\arm-none-eabi\\include\\s
 123              		.file 3 "C:\\Program Files (x86)\\Cypress\\EZ-USB FX3 SDK\\1.3\\/firmware/u3p_firmware/inc/cyu3typ
 124              		.file 4 "C:\\Program Files (x86)\\Cypress\\EZ-USB FX3 SDK\\1.3\\/firmware/u3p_firmware/inc/cyfx3_a
 125              		.file 5 "C:\\Program Files (x86)\\Cypress\\EZ-USB FX3 SDK\\1.3\\/firmware/u3p_firmware/inc/cyu3sys
 126              		.file 6 "C:\\Program Files (x86)\\Cypress\\EZ-USB FX3 SDK\\1.3\\/firmware/u3p_firmware/inc/cyu3err
DEFINED SYMBOLS
                            *ABS*:00000000 StartUp.c
C:\Users\Vinnu\AppData\Local\Temp\cctJy51h.s:17     .text.main:00000000 $a
C:\Users\Vinnu\AppData\Local\Temp\cctJy51h.s:20     .text.main:00000000 main
                     .debug_frame:00000010 $d

UNDEFINED SYMBOLS
CyU3PDeviceInit
CyU3PDeviceCacheControl
CyU3PMemSet
CyU3PDeviceConfigureIOMatrix
_tx_initialize_kernel_enter
