Info: Start Nativelink Simulation process
executing command line: ip-make-simscript --nativelink-mode --output-directory=Slave_FIFO_Write_iputf_input --spd=E:/Mohan_learning/A_FPGA_USB/compare/All_code_folder/with_modelsim/Slave_FIFO_Write_sine_wave/Slave_FIFO_FX3_PLL.spd 

========= EDA Simulation Settings =====================

Sim Mode              :  RTL
Family                :  cyclonev
Quartus root          :  c:/intelfpga_lite/16.1/quartus/bin64/
Quartus sim root      :  c:/intelfpga_lite/16.1/quartus/eda/sim_lib
Simulation Tool       :  modelsim-altera
Simulation Language   :  verilog
Simulation Mode       :  GUI
Sim Output File       :  
Sim SDF file          :  
Sim dir               :  simulation\modelsim

=======================================================

Info: Starting NativeLink simulation with ModelSim-Altera software
Sourced NativeLink script c:/intelfpga_lite/16.1/quartus/common/tcl/internal/nativelink/modelsim.tcl
Warning: File Slave_FIFO_Write_run_msim_rtl_verilog.do already exists - backing up current file as Slave_FIFO_Write_run_msim_rtl_verilog.do.bak6
Info: Spawning ModelSim-Altera Simulation software 
